{
    "name": "CameraInput",
    "maps": [
        {
            "name": "Movement",
            "id": "4cb3bd84-aff2-471d-8ecd-5b50f9377b21",
            "actions": [
                {
                    "name": "Drag",
                    "type": "Value",
                    "id": "c7c3f695-3868-412a-bec2-73ee54d297f6",
                    "expectedControlType": "Vector2",
                    "processors": "",
                    "interactions": "",
                    "initialStateCheck": true
                },
                {
                    "name": "Rotate",
                    "type": "Button",
                    "id": "383dc357-a052-41d6-861c-7d8865f939ff",
                    "expectedControlType": "Button",
                    "processors": "",
                    "interactions": "",
                    "initialStateCheck": false
                },
                {
                    "name": "Zoom",
                    "type": "Value",
                    "id": "11d42770-d4d5-447b-a4e8-a324c26f892e",
                    "expectedControlType": "Axis",
                    "processors": "",
                    "interactions": "",
                    "initialStateCheck": true
                }
            ],
            "bindings": [
                {
                    "name": "One Modifier",
                    "id": "eb021005-cf18-41f6-9be7-0f05418e2838",
                    "path": "OneModifier",
                    "interactions": "",
                    "processors": "",
                    "groups": "",
                    "action": "Drag",
                    "isComposite": true,
                    "isPartOfComposite": false
                },
                {
                    "name": "modifier",
                    "id": "cf7e82df-3505-4e0f-adc3-9003ca1766db",
                    "path": "<Mouse>/leftButton",
                    "interactions": "",
                    "processors": "",
                    "groups": "",
                    "action": "Drag",
                    "isComposite": false,
                    "isPartOfComposite": true
                },
                {
                    "name": "binding",
                    "id": "1286c642-e4e5-4743-92a0-175ad2e573cd",
                    "path": "<Mouse>/position",
                    "interactions": "",
                    "processors": "",
                    "groups": "",
                    "action": "Drag",
                    "isComposite": false,
                    "isPartOfComposite": true
                },
                {
                    "name": "One Modifier",
                    "id": "45e60e3e-4628-49e6-868b-7ef4cf7155d0",
                    "path": "OneModifier",
                    "interactions": "",
                    "processors": "",
                    "groups": "",
                    "action": "Rotate",
                    "isComposite": true,
                    "isPartOfComposite": false
                },
                {
                    "name": "modifier",
                    "id": "22d500f3-0030-4263-b934-177d6ecebf97",
                    "path": "<Mouse>/rightButton",
                    "interactions": "",
                    "processors": "",
                    "groups": "",
                    "action": "Rotate",
                    "isComposite": false,
                    "isPartOfComposite": true
                },
                {
                    "name": "binding",
                    "id": "61529b39-c31d-4c9e-ab91-e367c6380baa",
                    "path": "<Mouse>/delta",
                    "interactions": "",
                    "processors": "ScaleVector2(x=2,y=2)",
                    "groups": "",
                    "action": "Rotate",
                    "isComposite": false,
                    "isPartOfComposite": true
                },
                {
                    "name": "",
                    "id": "953a0191-32cd-4839-9798-b3c9220781b3",
                    "path": "<Mouse>/scroll/y",
                    "interactions": "",
                    "processors": "Scale",
                    "groups": "",
                    "action": "Zoom",
                    "isComposite": false,
                    "isPartOfComposite": false
                }
            ]
        }
    ],
    "controlSchemes": []
}